{
    "domain":  "xyz.com",
    "users":  [
                  {
                      "password":  "november",
                      "firstname":  "Belia",
                      "group":  "helpdesk",
                      "lastname":  "Pleasant"
                  },
                  {
                      "password":  "mahalko",
                      "firstname":  "Tiffi",
                      "group":  "helpdesk",
                      "lastname":  "Nosal"
                  },
                  {
                      "password":  "summer",
                      "firstname":  "Jasmina",
                      "group":  "marketing",
                      "lastname":  "Wackerly"
                  },
                  {
                      "password":  "david",
                      "firstname":  "Arlene",
                      "group":  "researcher",
                      "lastname":  "Seyal"
                  },
                  {
                      "password":  "kisses",
                      "firstname":  "Katrine",
                      "group":  "researcher",
                      "lastname":  "Mcphan"
                  },
                  {
                      "password":  "ricardo",
                      "firstname":  "Lucienne",
                      "group":  "engineer",
                      "lastname":  "Sympson"
                  },
                  {
                      "password":  "manuel",
                      "firstname":  "Shanda",
                      "group":  "helpdesk",
                      "lastname":  "Murchinson"
                  },
                  {
                      "password":  "mariana",
                      "firstname":  "Denice",
                      "group":  "engineer",
                      "lastname":  "Byrns"
                  },
                  {
                      "password":  "sandra",
                      "firstname":  "Susanne",
                      "group":  "researcher",
                      "lastname":  "Hint"
                  },
                  {
                      "password":  "butterfly",
                      "firstname":  "Sisile",
                      "group":  "executive",
                      "lastname":  "Struebing"
                  },
                  {
                      "password":  "rockyou",
                      "firstname":  "Millie",
                      "group":  "sales",
                      "lastname":  "Moatz"
                  },
                  {
                      "password":  "monkey",
                      "firstname":  "Vera",
                      "group":  "marketing",
                      "lastname":  "Deschino"
                  },
                  {
                      "password":  "andrea",
                      "firstname":  "Robinette",
                      "group":  "sales",
                      "lastname":  "Mccoulskey"
                  },
                  {
                      "password":  "mickey",
                      "firstname":  "Celinda",
                      "group":  "engineer",
                      "lastname":  "Jackon"
                  },
                  {
                      "password":  "fernando",
                      "firstname":  "Marion",
                      "group":  "manager",
                      "lastname":  "Belken"
                  },
                  {
                      "password":  "october",
                      "firstname":  "Silvie",
                      "group":  "lawyer",
                      "lastname":  "Lindesmith"
                  },
                  {
                      "password":  "michelle",
                      "firstname":  "Tildi",
                      "group":  "sales",
                      "lastname":  "Rash"
                  },
                  {
                      "password":  "corazon",
                      "firstname":  "Elfreda",
                      "group":  "engineer",
                      "lastname":  "Setera"
                  },
                  {
                      "password":  "tinkerbell",
                      "firstname":  "Leticia",
                      "group":  "sales",
                      "lastname":  "Bostian"
                  },
                  {
                      "password":  "adrian",
                      "firstname":  "Helaina",
                      "group":  "sales",
                      "lastname":  "Loveridge"
                  },
                  {
                      "password":  "iloveyou1",
                      "firstname":  "Leslie",
                      "group":  "operations",
                      "lastname":  "Christi"
                  },
                  {
                      "password":  "blink182",
                      "firstname":  "Rosy",
                      "group":  "helpdesk",
                      "lastname":  "Luker"
                  },
                  {
                      "password":  "12345678",
                      "firstname":  "Honor",
                      "group":  "employee",
                      "lastname":  "Carnighan"
                  },
                  {
                      "password":  "mahalkita",
                      "firstname":  "Cassey",
                      "group":  "administrator",
                      "lastname":  "Villar"
                  },
                  {
                      "password":  "matthew",
                      "firstname":  "Flossy",
                      "group":  "administrator",
                      "lastname":  "Schoenemann"
                  },
                  {
                      "password":  "alyssa",
                      "firstname":  "Mira",
                      "group":  "engineer",
                      "lastname":  "Wickens"
                  },
                  {
                      "password":  "gabriel",
                      "firstname":  "Alexa",
                      "group":  "manager",
                      "lastname":  "Schleusner"
                  },
                  {
                      "password":  "hellokitty",
                      "firstname":  "Cherie",
                      "group":  "employee",
                      "lastname":  "Frein"
                  },
                  {
                      "password":  "1234567",
                      "firstname":  "Olympe",
                      "group":  "researcher",
                      "lastname":  "Cords"
                  },
                  {
                      "password":  "shadow",
                      "firstname":  "Sioux",
                      "group":  "engineer",
                      "lastname":  "Bouleris"
                  },
                  {
                      "password":  "spongebob",
                      "firstname":  "Celestina",
                      "group":  "it_services",
                      "lastname":  "Fitchette"
                  },
                  {
                      "password":  "honey",
                      "firstname":  "Aurore",
                      "group":  "manager",
                      "lastname":  "Cicarella"
                  },
                  {
                      "password":  "123123",
                      "firstname":  "Eolanda",
                      "group":  "administrator",
                      "lastname":  "Schlotter"
                  },
                  {
                      "password":  "angels",
                      "firstname":  "Konstanze",
                      "group":  "sales",
                      "lastname":  "Holecek"
                  },
                  {
                      "password":  "qwerty",
                      "firstname":  "Laina",
                      "group":  "employee",
                      "lastname":  "Weinert"
                  },
                  {
                      "password":  "tweety",
                      "firstname":  "Arabella",
                      "group":  "administrator",
                      "lastname":  "Longway"
                  },
                  {
                      "password":  "sweetie",
                      "firstname":  "Shawn",
                      "group":  "manager",
                      "lastname":  "Radke"
                  },
                  {
                      "password":  "rachel",
                      "firstname":  "Sherill",
                      "group":  "helpdesk",
                      "lastname":  "Tamkin"
                  },
                  {
                      "password":  "123abc",
                      "firstname":  "Katharyn",
                      "group":  "researcher",
                      "lastname":  "Kopper"
                  },
                  {
                      "password":  "superman",
                      "firstname":  "Kalila",
                      "group":  "manager",
                      "lastname":  "Haeber"
                  },
                  {
                      "password":  "asshole",
                      "firstname":  "Dacia",
                      "group":  "developer",
                      "lastname":  "Dilg"
                  },
                  {
                      "password":  "55555",
                      "firstname":  "Tori",
                      "group":  "sales",
                      "lastname":  "Tungate"
                  },
                  {
                      "password":  "12345",
                      "firstname":  "Gaye",
                      "group":  "engineer",
                      "lastname":  "Nailer"
                  },
                  {
                      "password":  "austin",
                      "firstname":  "Carolee",
                      "group":  "sales",
                      "lastname":  "Kruis"
                  },
                  {
                      "password":  "andres",
                      "firstname":  "Gwenni",
                      "group":  "operations",
                      "lastname":  "Ruehl"
                  },
                  {
                      "password":  "7777777",
                      "firstname":  "Rahal",
                      "group":  "administrator",
                      "lastname":  "Glazner"
                  },
                  {
                      "password":  "teamo",
                      "firstname":  "Emilie",
                      "group":  "operations",
                      "lastname":  "Thoma"
                  },
                  {
                      "password":  "lauren",
                      "firstname":  "Kary",
                      "group":  "sales",
                      "lastname":  "Eddings"
                  },
                  {
                      "password":  "iloveyou2",
                      "firstname":  "Helyn",
                      "group":  "helpdesk",
                      "lastname":  "Nicholl"
                  },
                  {
                      "password":  "anthony",
                      "firstname":  "Elane",
                      "group":  "lawyer",
                      "lastname":  "Dalesandro"
                  },
                  {
                      "password":  "121212",
                      "firstname":  "Jeanna",
                      "group":  "operations",
                      "lastname":  "Yeater"
                  },
                  {
                      "password":  "killer",
                      "firstname":  "Glennie",
                      "group":  "helpdesk",
                      "lastname":  "Kina"
                  },
                  {
                      "password":  "mother",
                      "firstname":  "Netta",
                      "group":  "administrator",
                      "lastname":  "Ranallo"
                  },
                  {
                      "password":  "heaven",
                      "firstname":  "Gerty",
                      "group":  "sales",
                      "lastname":  "Belfort"
                  },
                  {
                      "password":  "cherry",
                      "firstname":  "Veda",
                      "group":  "operations",
                      "lastname":  "Demeritte"
                  },
                  {
                      "password":  "whatever",
                      "firstname":  "Sophie",
                      "group":  "lawyer",
                      "lastname":  "Gulden"
                  },
                  {
                      "password":  "fuckyou",
                      "firstname":  "Jacquie",
                      "group":  "developer",
                      "lastname":  "Raheem"
                  },
                  {
                      "password":  "hottie",
                      "firstname":  "Zorah",
                      "group":  "employee",
                      "lastname":  "Walkner"
                  },
                  {
                      "password":  "hello",
                      "firstname":  "Jo-Ann",
                      "group":  "executive",
                      "lastname":  "Nickols"
                  },
                  {
                      "password":  "morgan",
                      "firstname":  "Letizia",
                      "group":  "developer",
                      "lastname":  "Velazquez"
                  },
                  {
                      "password":  "daniel",
                      "firstname":  "Keriann",
                      "group":  "marketing",
                      "lastname":  "Vondoloski"
                  },
                  {
                      "password":  "159753",
                      "firstname":  "Albertina",
                      "group":  "administrator",
                      "lastname":  "Stamnos"
                  },
                  {
                      "password":  "maggie",
                      "firstname":  "Clarey",
                      "group":  "marketing",
                      "lastname":  "Brueckman"
                  },
                  {
                      "password":  "pepper",
                      "firstname":  "Alisa",
                      "group":  "employee",
                      "lastname":  "Theunissen"
                  },
                  {
                      "password":  "danielle",
                      "firstname":  "Inesita",
                      "group":  "helpdesk",
                      "lastname":  "Yrigollen"
                  },
                  {
                      "password":  "peaches",
                      "firstname":  "Sasha",
                      "group":  "helpdesk",
                      "lastname":  "Megna"
                  },
                  {
                      "password":  "jesus",
                      "firstname":  "Carolyne",
                      "group":  "it_services",
                      "lastname":  "Bickham"
                  },
                  {
                      "password":  "george",
                      "firstname":  "Tiphanie",
                      "group":  "lawyer",
                      "lastname":  "Stonerock"
                  },
                  {
                      "password":  "vanessa",
                      "firstname":  "Kelsy",
                      "group":  "it_services",
                      "lastname":  "Hershberg"
                  },
                  {
                      "password":  "1234567890",
                      "firstname":  "Christabella",
                      "group":  "executive",
                      "lastname":  "Forson"
                  },
                  {
                      "password":  "00000",
                      "firstname":  "Davida",
                      "group":  "helpdesk",
                      "lastname":  "Roeker"
                  },
                  {
                      "password":  "jasmine",
                      "firstname":  "Izabel",
                      "group":  "helpdesk",
                      "lastname":  "Leoni"
                  },
                  {
                      "password":  "naruto",
                      "firstname":  "Janaya",
                      "group":  "researcher",
                      "lastname":  "Wholly"
                  },
                  {
                      "password":  "jessica",
                      "firstname":  "Tildie",
                      "group":  "researcher",
                      "lastname":  "Frankl"
                  },
                  {
                      "password":  "iloveme",
                      "firstname":  "Inger",
                      "group":  "lawyer",
                      "lastname":  "Senese"
                  },
                  {
                      "password":  "bubbles",
                      "firstname":  "Camel",
                      "group":  "developer",
                      "lastname":  "Weatherby"
                  },
                  {
                      "password":  "carlos",
                      "firstname":  "Dotty",
                      "group":  "employee",
                      "lastname":  "Sudderth"
                  },
                  {
                      "password":  "inuyasha",
                      "firstname":  "Belicia",
                      "group":  "manager",
                      "lastname":  "Trease"
                  },
                  {
                      "password":  "mylove",
                      "firstname":  "Debbie",
                      "group":  "administrator",
                      "lastname":  "Hornak"
                  },
                  {
                      "password":  "america",
                      "firstname":  "Hulda",
                      "group":  "engineer",
                      "lastname":  "Mazar"
                  },
                  {
                      "password":  "cheese",
                      "firstname":  "Cornelia",
                      "group":  "sales",
                      "lastname":  "Kumalaa"
                  },
                  {
                      "password":  "password1",
                      "firstname":  "Sada",
                      "group":  "employee",
                      "lastname":  "Gowler"
                  },
                  {
                      "password":  "heather",
                      "firstname":  "Robina",
                      "group":  "manager",
                      "lastname":  "Neighbours"
                  },
                  {
                      "password":  "11111",
                      "firstname":  "Minne",
                      "group":  "marketing",
                      "lastname":  "Bazile"
                  },
                  {
                      "password":  "ashley",
                      "firstname":  "Sammy",
                      "group":  "manager",
                      "lastname":  "Pastano"
                  },
                  {
                      "password":  "harley",
                      "firstname":  "Jorie",
                      "group":  "employee",
                      "lastname":  "Demirjian"
                  },
                  {
                      "password":  "111111",
                      "firstname":  "Nancey",
                      "group":  "researcher",
                      "lastname":  "Hyacinthe"
                  },
                  {
                      "password":  "estrella",
                      "firstname":  "Masha",
                      "group":  "developer",
                      "lastname":  "Leist"
                  },
                  {
                      "password":  "justin",
                      "firstname":  "Lynette",
                      "group":  "developer",
                      "lastname":  "Mcclenningham"
                  },
                  {
                      "password":  "888888",
                      "firstname":  "Katalin",
                      "group":  "administrator",
                      "lastname":  "Levere"
                  },
                  {
                      "password":  "batman",
                      "firstname":  "Gretel",
                      "group":  "lawyer",
                      "lastname":  "Kubasik"
                  },
                  {
                      "password":  "chris",
                      "firstname":  "Agace",
                      "group":  "researcher",
                      "lastname":  "Haerr"
                  },
                  {
                      "password":  "kimberly",
                      "firstname":  "Sidonnie",
                      "group":  "it_services",
                      "lastname":  "Sack"
                  },
                  {
                      "password":  "precious",
                      "firstname":  "Karil",
                      "group":  "administrator",
                      "lastname":  "Candelario"
                  },
                  {
                      "password":  "princesa",
                      "firstname":  "Roxy",
                      "group":  "researcher",
                      "lastname":  "Brambila"
                  },
                  {
                      "password":  "shannon",
                      "firstname":  "Bettina",
                      "group":  "it_services",
                      "lastname":  "Jubb"
                  },
                  {
                      "password":  "222222",
                      "firstname":  "Glennis",
                      "group":  "manager",
                      "lastname":  "Kalar"
                  },
                  {
                      "password":  "miguel",
                      "firstname":  "Agneta",
                      "group":  "sales",
                      "lastname":  "Pembleton"
                  },
                  {
                      "password":  "ronaldo",
                      "firstname":  "Mercy",
                      "group":  "administrator",
                      "lastname":  "Sutherlin"
                  },
                  {
                      "password":  "forever",
                      "firstname":  "Gisela",
                      "group":  "operations",
                      "lastname":  "Middaugh"
                  }
              ],
    "groups":  [
                   {
                       "Description":  "Administrative group",
                       "Name":  "administrator",
                       "Display_Name":  "Administrator"
                   },
                   {
                       "Description":  "Employees group",
                       "Name":  "employee",
                       "Display_Name":  "Employee"
                   },
                   {
                       "Description":  "Managers group",
                       "Name":  "manager",
                       "Display_Name":  "Manager"
                   },
                   {
                       "Description":  "Executives group",
                       "Name":  "executive",
                       "Display_Name":  "Executive"
                   },
                   {
                       "Description":  "Engineers group",
                       "Name":  "engineer",
                       "Display_Name":  "Engineer"
                   },
                   {
                       "Description":  "Researchers and scientists group",
                       "Name":  "researcher",
                       "Display_Name":  "Researcher"
                   },
                   {
                       "Description":  "Developers group",
                       "Name":  "developer",
                       "Display_Name":  "Developer"
                   },
                   {
                       "Description":  "Sales team",
                       "Name":  "sales",
                       "Display_Name":  "Sales"
                   },
                   {
                       "Description":  "Marketing team",
                       "Name":  "marketing",
                       "Display_Name":  "Marketing"
                   },
                   {
                       "Description":  "Lawyers team",
                       "Name":  "lawyer",
                       "Display_Name":  "Lawyer"
                   },
                   {
                       "Description":  "Operations team",
                       "Name":  "operations",
                       "Display_Name":  "Operations"
                   },
                   {
                       "Description":  "Information Technology Team",
                       "Name":  "it_services",
                       "Display_Name":  "IT Services"
                   },
                   {
                       "Description":  "Helpdsk group",
                       "Name":  "helpdesk",
                       "Display_Name":  "HelpDesk"
                   }
               ]
}
