Display_Name, Name, Description
Administrator, administrator, "Administrative group"
Employee, employee, "Employees group"
Manager, manager, "Managers group"
Executive, executive, "Executives group"
Engineer, engineer, "Engineers group"
Researcher, researcher, "Researchers and scientists group"
Developer, developer, "Developers group"
Sales, sales, "Sales team"
Marketing, marketing, "Marketing team"
Lawyer, lawyer, "Lawyers team"
Operations, operations, "Operations team"
IT Services, it_services, "Information Technology Team"
HelpDesk, helpdesk, "Helpdsk group"